%YAML 1.1
%TAG !u! tag:unity3d.com,2011:
--- !u!74 &7400000
AnimationClip:
  m_ObjectHideFlags: 0
  m_PrefabParentObject: {fileID: 0}
  m_PrefabInternal: {fileID: 0}
  m_Name: MouseAnimation
  serializedVersion: 6
  m_Legacy: 0
  m_Compressed: 0
  m_UseHighQualityCurve: 1
  m_RotationCurves: []
  m_CompressedRotationCurves: []
  m_EulerCurves: []
  m_PositionCurves: []
  m_ScaleCurves: []
  m_FloatCurves: []
  m_PPtrCurves:
  - curve:
    - time: 0
      value: {fileID: 21300000, guid: c15337de01ed390439bfac342596dfd0, type: 3}
    - time: 0.016666668
      value: {fileID: 21300000, guid: 35fa4bef97a90994d85e1778f6d60bfc, type: 3}
    - time: 0.033333335
      value: {fileID: 21300000, guid: 62f4722b8da575e47bfd4abaf3df3f7a, type: 3}
    - time: 0.05
      value: {fileID: 21300000, guid: 7167af14f3c0c2643b66daf3126efbbd, type: 3}
    - time: 0.06666667
      value: {fileID: 21300000, guid: 889e515212fee484a98cbd3f0276f9c2, type: 3}
    - time: 0.083333336
      value: {fileID: 21300000, guid: 9ceea4a6451ee774fab58717f157a06c, type: 3}
    - time: 0.1
      value: {fileID: 21300000, guid: 3f8076189a669a64c846dc3e5a757d16, type: 3}
    - time: 0.11666667
      value: {fileID: 21300000, guid: 7cd86148c337ec7458eafe84a5aa5025, type: 3}
    - time: 0.13333334
      value: {fileID: 21300000, guid: 2a0a1ee4fe9e2e94ea5797a799b2c874, type: 3}
    - time: 0.15
      value: {fileID: 21300000, guid: ed269d82995f68b4290105413c4e7178, type: 3}
    - time: 0.16666667
      value: {fileID: 21300000, guid: 1ce8a4972b2fc3d40bd010fa199f21a3, type: 3}
    - time: 0.18333334
      value: {fileID: 21300000, guid: f5ab5e9fc97f1774aac2341099a6601d, type: 3}
    - time: 0.2
      value: {fileID: 21300000, guid: 8a646d6abb5e93946a69bb7a3836bde3, type: 3}
    - time: 0.21666667
      value: {fileID: 21300000, guid: f88272ea5ad18854ea01429c56d3d5a6, type: 3}
    - time: 0.23333333
      value: {fileID: 21300000, guid: 84c14483110cc934da1d24095554d115, type: 3}
    - time: 0.25
      value: {fileID: 21300000, guid: f032954b05c73fb459de2616da35fe6f, type: 3}
    - time: 0.26666668
      value: {fileID: 21300000, guid: c4175be062aed49419f15b1626e685f2, type: 3}
    - time: 0.28333336
      value: {fileID: 21300000, guid: 1b6c1a9266194f0408c709469ce76b51, type: 3}
    - time: 0.30000004
      value: {fileID: 21300000, guid: 053eec52e0fcb6b4f903e8c6e5265235, type: 3}
    - time: 0.31666672
      value: {fileID: 21300000, guid: c19895d3e265bf04e93835a36e06297f, type: 3}
    - time: 0.3333334
      value: {fileID: 21300000, guid: 6abce3281cf2f7244b0de96bc8fa9f3f, type: 3}
    - time: 0.35000008
      value: {fileID: 21300000, guid: c1e5eec49276a104bb9c056ee4442792, type: 3}
    - time: 0.36666676
      value: {fileID: 21300000, guid: fbaafe285b032a341b53fd647ed2aa3b, type: 3}
    - time: 0.38333344
      value: {fileID: 21300000, guid: e49ed5e671b164349b78110daf2b4b2f, type: 3}
    - time: 0.40000013
      value: {fileID: 21300000, guid: d81f262fcfd04b1438d003fbd888a15a, type: 3}
    - time: 0.4166668
      value: {fileID: 21300000, guid: 7e6c2a813211fc64cb933dc1229d4b51, type: 3}
    - time: 0.4333335
      value: {fileID: 21300000, guid: 906d8046ab137c34dac5f9cd5825ffa0, type: 3}
    - time: 0.45000017
      value: {fileID: 21300000, guid: be15ad459b2206c4384009f656275448, type: 3}
    - time: 0.46666685
      value: {fileID: 21300000, guid: c35cf93a58a5a4842849acd101d573be, type: 3}
    - time: 0.48333332
      value: {fileID: 21300000, guid: c15337de01ed390439bfac342596dfd0, type: 3}
    - time: 1
      value: {fileID: 21300000, guid: c15337de01ed390439bfac342596dfd0, type: 3}
    attribute: m_Sprite
    path: 
    classID: 114
    script: {fileID: -765806418, guid: f70555f144d8491a825f0804e09c671c, type: 3}
  m_SampleRate: 60
  m_WrapMode: 0
  m_Bounds:
    m_Center: {x: 0, y: 0, z: 0}
    m_Extent: {x: 0, y: 0, z: 0}
  m_ClipBindingConstant:
    genericBindings:
    - serializedVersion: 2
      path: 0
      attribute: 2015549526
      script: {fileID: -765806418, guid: f70555f144d8491a825f0804e09c671c, type: 3}
      typeID: 114
      customType: 0
      isPPtrCurve: 1
    pptrCurveMapping:
    - {fileID: 21300000, guid: c15337de01ed390439bfac342596dfd0, type: 3}
    - {fileID: 21300000, guid: 35fa4bef97a90994d85e1778f6d60bfc, type: 3}
    - {fileID: 21300000, guid: 62f4722b8da575e47bfd4abaf3df3f7a, type: 3}
    - {fileID: 21300000, guid: 7167af14f3c0c2643b66daf3126efbbd, type: 3}
    - {fileID: 21300000, guid: 889e515212fee484a98cbd3f0276f9c2, type: 3}
    - {fileID: 21300000, guid: 9ceea4a6451ee774fab58717f157a06c, type: 3}
    - {fileID: 21300000, guid: 3f8076189a669a64c846dc3e5a757d16, type: 3}
    - {fileID: 21300000, guid: 7cd86148c337ec7458eafe84a5aa5025, type: 3}
    - {fileID: 21300000, guid: 2a0a1ee4fe9e2e94ea5797a799b2c874, type: 3}
    - {fileID: 21300000, guid: ed269d82995f68b4290105413c4e7178, type: 3}
    - {fileID: 21300000, guid: 1ce8a4972b2fc3d40bd010fa199f21a3, type: 3}
    - {fileID: 21300000, guid: f5ab5e9fc97f1774aac2341099a6601d, type: 3}
    - {fileID: 21300000, guid: 8a646d6abb5e93946a69bb7a3836bde3, type: 3}
    - {fileID: 21300000, guid: f88272ea5ad18854ea01429c56d3d5a6, type: 3}
    - {fileID: 21300000, guid: 84c14483110cc934da1d24095554d115, type: 3}
    - {fileID: 21300000, guid: f032954b05c73fb459de2616da35fe6f, type: 3}
    - {fileID: 21300000, guid: c4175be062aed49419f15b1626e685f2, type: 3}
    - {fileID: 21300000, guid: 1b6c1a9266194f0408c709469ce76b51, type: 3}
    - {fileID: 21300000, guid: 053eec52e0fcb6b4f903e8c6e5265235, type: 3}
    - {fileID: 21300000, guid: c19895d3e265bf04e93835a36e06297f, type: 3}
    - {fileID: 21300000, guid: 6abce3281cf2f7244b0de96bc8fa9f3f, type: 3}
    - {fileID: 21300000, guid: c1e5eec49276a104bb9c056ee4442792, type: 3}
    - {fileID: 21300000, guid: fbaafe285b032a341b53fd647ed2aa3b, type: 3}
    - {fileID: 21300000, guid: e49ed5e671b164349b78110daf2b4b2f, type: 3}
    - {fileID: 21300000, guid: d81f262fcfd04b1438d003fbd888a15a, type: 3}
    - {fileID: 21300000, guid: 7e6c2a813211fc64cb933dc1229d4b51, type: 3}
    - {fileID: 21300000, guid: 906d8046ab137c34dac5f9cd5825ffa0, type: 3}
    - {fileID: 21300000, guid: be15ad459b2206c4384009f656275448, type: 3}
    - {fileID: 21300000, guid: c35cf93a58a5a4842849acd101d573be, type: 3}
    - {fileID: 21300000, guid: c15337de01ed390439bfac342596dfd0, type: 3}
    - {fileID: 21300000, guid: c15337de01ed390439bfac342596dfd0, type: 3}
  m_AnimationClipSettings:
    serializedVersion: 2
    m_AdditiveReferencePoseClip: {fileID: 0}
    m_AdditiveReferencePoseTime: 0
    m_StartTime: 0
    m_StopTime: 1.0166667
    m_OrientationOffsetY: 0
    m_Level: 0
    m_CycleOffset: 0
    m_HasAdditiveReferencePose: 0
    m_LoopTime: 1
    m_LoopBlend: 0
    m_LoopBlendOrientation: 0
    m_LoopBlendPositionY: 0
    m_LoopBlendPositionXZ: 0
    m_KeepOriginalOrientation: 0
    m_KeepOriginalPositionY: 1
    m_KeepOriginalPositionXZ: 0
    m_HeightFromFeet: 0
    m_Mirror: 0
  m_EditorCurves: []
  m_EulerEditorCurves: []
  m_HasGenericRootTransform: 0
  m_HasMotionFloatCurves: 0
  m_GenerateMotionCurves: 0
  m_Events: []
