# This file uses centimeters as units for non-parametric coordinates.

mtllib mt_Kit_02.mtl
g default
v -2.881119 -0.207362 6.350260
v 0.147624 -0.207362 6.350260
v 3.176374 -0.207362 5.227953
v 6.205117 -0.207362 5.227953
v -2.881119 9.032282 6.350260
v 1.724261 9.032282 6.350260
v 3.176374 3.665818 5.227953
v 6.205117 1.312760 5.227953
v 2.649679 9.032281 1.466682
v 3.785688 3.665817 1.466682
v 7.042739 1.312760 2.447422
v 3.226324 9.032279 -0.505040
v 4.561030 3.665815 -0.505040
v 8.294732 1.312759 -0.346988
v -2.881119 9.032280 -5.205616
v 1.724261 9.032282 -6.061548
v 3.176374 3.665818 -5.084649
v 6.205117 1.312759 -4.266311
v -2.881119 -0.207364 -5.205616
v 0.147624 -0.207364 -6.061548
v 3.176374 -0.207364 -5.084649
v 6.205117 -0.207362 -4.266311
v 8.294732 -0.207364 -0.346988
v 7.042739 -0.207364 2.447422
v -2.881119 13.337679 5.227953
v 0.145838 13.337679 5.227953
v 0.145838 13.337677 1.376472
v -2.881119 13.337679 2.063200
v 0.952237 13.337675 -1.101556
v 0.145838 13.337679 -2.884857
v -2.881119 13.337677 -5.205616
v -2.881119 19.676966 1.009718
v -1.034399 17.584779 1.009716
v -1.034399 17.584779 -1.101556
v -1.916105 19.676966 -1.101554
v -1.034399 17.584779 -2.412122
v -2.881119 19.676965 -3.279706
v -4.804306 -0.207364 -5.205616
v -4.804306 9.032280 -5.205616
v -4.804306 -0.207362 6.350260
v -4.804306 9.032282 6.350260
v -4.804306 13.337679 5.227953
v -4.804306 13.337679 2.063198
v -4.804306 13.337677 -5.205616
v -4.398997 19.676966 1.009716
v -4.398997 19.676965 -3.279706
v -3.769708 16.731098 4.099252
v -3.769708 16.731098 3.191897
v -4.772872 16.731098 3.191897
v -4.772872 16.099144 4.099252
v -3.769708 22.438431 0.256739
v -2.804687 22.438431 -1.113482
v -4.367556 22.438431 0.256739
v -3.364392 22.438430 -2.502875
v -4.367556 22.438430 -2.502875
v -5.751827 -0.207364 -4.266311
v -5.751827 10.719779 0.377733
v -5.751827 9.032280 -4.266311
v -5.751827 -0.207364 2.063198
v -5.751827 9.032282 2.063198
v -7.022300 -0.207362 4.124396
v -7.022300 9.032282 4.124396
v -7.022300 13.337679 3.563103
v -5.751827 13.337679 2.063198
v -5.751827 13.337679 -1.101556
v -5.751827 13.337677 -4.266311
v -5.346519 19.676966 0.497970
v -5.346519 19.676966 -1.101556
v -5.346519 19.676965 -3.279706
v -5.531390 16.099144 3.690574
v -5.720393 16.618414 3.191897
v -4.830309 22.438431 -0.056320
v -4.830309 22.438431 -0.914794
v -4.830309 22.438430 -2.304187
v -3.911564 24.242247 -0.609139
v -3.911564 24.242247 -1.119498
v -4.250570 24.242247 -1.119498
v -4.250570 24.242247 -0.609139
v -3.681730 24.242246 -1.636997
v -4.250570 24.242246 -1.636997
v -4.512970 24.242247 -1.045493
v -4.512970 24.242247 -0.725742
v -4.512970 24.242246 -1.562992
v -7.131640 -0.207364 -2.437097
v -7.131640 -0.207362 -0.032550
v -7.131640 9.032282 -1.101554
v -7.131640 9.032280 -2.158960
v -7.131640 -0.207364 1.435896
v -7.131640 7.167323 0.461214
v -7.131640 11.161626 -2.023211
v -7.131640 12.103129 -3.433926
vt 0.375000 0.000000
vt 0.458333 0.000000
vt 0.541667 0.000000
vt 0.625000 0.000000
vt 0.375000 0.250000
vt 0.458333 0.250000
vt 0.541667 0.250000
vt 0.625000 0.250000
vt 0.375000 0.333333
vt 0.458333 0.333333
vt 0.541667 0.333333
vt 0.625000 0.333333
vt 0.375000 0.416667
vt 0.458333 0.416667
vt 0.541667 0.416667
vt 0.625000 0.416667
vt 0.375000 0.500000
vt 0.458333 0.500000
vt 0.541667 0.500000
vt 0.625000 0.500000
vt 0.375000 0.750000
vt 0.458333 0.750000
vt 0.541667 0.750000
vt 0.625000 0.750000
vt 0.875000 0.000000
vt 0.791667 0.000000
vt 0.708333 0.000000
vt 0.875000 0.250000
vt 0.791667 0.250000
vt 0.708333 0.250000
vt 0.125000 0.000000
vt 0.125000 0.250000
vt 0.208333 0.250000
vt 0.291667 0.250000
vt 0.375000 0.250000
vt 0.458333 0.250000
vt 0.458333 0.333333
vt 0.375000 0.333333
vt 0.458333 0.416667
vt 0.375000 0.416667
vt 0.458333 0.500000
vt 0.375000 0.500000
vt 0.375000 0.333333
vt 0.458333 0.333333
vt 0.458333 0.416667
vt 0.375000 0.416667
vt 0.458333 0.500000
vt 0.375000 0.500000
vt 0.125000 0.000000
vt 0.125000 0.250000
vt 0.375000 0.000000
vt 0.375000 0.250000
vt 0.375000 0.250000
vt 0.375000 0.333333
vt 0.375000 0.500000
vt 0.375000 0.500000
vt 0.375000 0.333333
vt 0.375000 0.416667
vt 0.375000 0.500000
vt 0.375000 0.250000
vt 0.375000 0.333333
vt 0.375000 0.333333
vt 0.375000 0.250000
vt 0.375000 0.333333
vt 0.375000 0.416667
vt 0.375000 0.416667
vt 0.375000 0.333333
vt 0.375000 0.500000
vt 0.375000 0.500000
vt 0.125000 0.000000
vt 0.125000 0.250000
vt 0.291667 0.000000
vt 0.375000 0.000000
vt 0.375000 0.250000
vt 0.375000 0.250000
vt 0.375000 0.500000
vt 0.375000 0.500000
vt 0.375000 0.333333
vt 0.375000 0.333333
vt 0.375000 0.500000
vt 0.375000 0.250000
vt 0.375000 0.333333
vt 0.375000 0.333333
vt 0.375000 0.416667
vt 0.375000 0.500000
vt 0.375000 0.333333
vt 0.375000 0.416667
vt 0.375000 0.333333
vt 0.375000 0.500000
vt 0.375000 0.500000
vt 0.375000 0.416667
vt 0.375000 0.333333
vt 0.375000 0.500000
vt 0.125000 0.000000
vt 0.208333 0.000000
vt 0.125000 0.250000
vt 0.291667 0.000000
vt 0.291667 0.250000
vt 0.208333 0.250000
vt 0.375000 0.416667
vt 0.375000 0.416667
vt 0.375000 0.500000
vt 0.375000 0.500000
vn 0.000000 0.000000 1.000000
vn 0.000000 0.000000 1.000000
vn 0.000000 0.000000 1.000000
vn 0.000000 0.035178 0.999381
vn 0.400644 -0.048171 0.914966
vn 0.282485 -0.033964 0.958670
vn 0.353551 -0.042509 0.934449
vn 0.400644 -0.048171 0.914966
vn 0.000001 0.000000 1.000000
vn 0.000001 0.000000 1.000000
vn 0.000000 1.000000 -0.000000
vn 0.000000 1.000000 -0.000000
vn 0.000000 1.000000 -0.000000
vn 0.000000 1.000000 -0.000000
vn 0.936516 0.323443 0.135362
vn 0.893947 0.415948 0.166874
vn 0.851412 0.478390 0.215037
vn 0.923713 0.332394 0.190440
vn 0.581417 0.803378 0.128599
vn 0.553539 0.814894 0.171877
vn 0.822719 0.536452 0.188023
vn 0.822719 0.536452 0.188023
vn 0.847578 0.530671 0.000000
vn 0.847565 0.530692 0.000257
vn 0.838546 0.536941 -0.092383
vn 0.939927 0.330995 -0.083537
vn 0.568914 0.820853 -0.050370
vn 0.836189 0.497282 -0.231298
vn 0.836189 0.497282 -0.231298
vn 0.880147 0.389702 -0.271060
vn 0.914113 0.303379 -0.268994
vn 0.577795 0.781258 -0.236196
vn -0.090697 0.139505 -0.986059
vn -0.057116 0.108858 -0.992415
vn -0.055055 0.000986 -0.998483
vn -0.218767 0.018665 -0.975599
vn 0.343374 -0.037093 -0.938466
vn 0.325878 -0.029141 -0.944963
vn 0.260838 0.000000 -0.965383
vn 0.260838 0.000000 -0.965383
vn 0.992307 0.000000 -0.123802
vn 0.882417 0.000000 -0.470467
vn 0.882417 0.000000 -0.470467
vn 0.992307 0.000000 -0.123802
vn 0.936384 0.000000 0.350978
vn 0.936384 0.000000 0.350978
vn 0.957497 0.000000 0.288442
vn 0.957497 0.000000 0.288442
vn -1.000000 0.000001 0.000000
vn -1.000000 0.000001 0.000000
vn -1.000000 0.000000 0.000000
vn -1.000000 0.000000 0.000000
vn -1.000000 0.000000 0.000000
vn -1.000000 0.000000 0.000000
vn -0.851281 0.000000 -0.524709
vn -0.851282 0.000000 -0.524709
vn -0.841140 -0.010655 -0.540713
vn -0.871531 -0.010158 -0.490235
vn 0.000000 0.252245 0.967663
vn 0.000000 0.252245 0.967663
vn 0.000000 0.252245 0.967663
vn 0.000000 0.252245 0.967663
vn 0.877836 0.454707 0.150487
vn 0.894301 0.437320 0.094745
vn -0.837820 0.040902 -0.544412
vn -0.937844 0.029611 -0.345792
vn 0.871083 0.483096 -0.088509
vn -1.000000 0.000000 0.000000
vn -1.000000 0.000000 0.000000
vn 0.847488 0.459040 -0.266545
vn 0.175191 0.368872 -0.912821
vn 0.175191 0.368872 -0.912821
vn -1.000000 -0.000005 0.000000
vn -1.000000 -0.000005 0.000000
vn 0.201707 0.152289 0.967534
vn 0.201707 0.152289 0.967534
vn 0.201707 0.152289 0.967534
vn 0.201707 0.152289 0.967534
vn 0.922300 0.350856 0.162060
vn 0.922300 0.350856 0.162060
vn 0.922300 0.350856 0.162060
vn 0.922300 0.350856 0.162060
vn -0.997962 0.063805 0.000000
vn -0.997962 0.063805 0.000000
vn -0.996666 0.081590 0.000000
vn -0.996023 0.089093 -0.000000
vn 0.906115 0.350967 -0.236174
vn 0.906115 0.350967 -0.236174
vn 0.906115 0.350967 -0.236174
vn 0.906115 0.350968 -0.236174
vn 0.601464 0.239727 -0.762084
vn 0.601464 0.239727 -0.762084
vn 0.601464 0.239727 -0.762084
vn 0.601464 0.239727 -0.762084
vn -0.997962 0.063806 -0.000000
vn -0.997962 0.063806 -0.000000
vn -0.996394 0.084851 -0.000000
vn 0.000000 0.000000 -1.000000
vn 0.000000 0.000000 -1.000000
vn -0.310980 0.000000 -0.950417
vn -0.310979 0.000000 -0.950417
vn -0.452610 0.061655 0.889574
vn -0.473440 0.000000 0.880826
vn 0.000000 0.252245 0.967663
vn -0.431231 0.197457 0.880369
vn -0.285114 0.905177 0.315220
vn -0.285114 0.905177 0.315220
vn -0.253825 0.850963 0.459821
vn -0.254431 0.852102 0.457369
vn 0.000000 0.170180 -0.985413
vn -0.228559 0.156344 -0.960894
vn -0.000001 0.163934 0.986471
vn -0.000001 0.182042 0.983291
vn -0.118592 0.200770 0.972434
vn -0.098704 0.183596 0.978034
vn 0.000000 1.000000 0.000000
vn 0.000000 1.000000 -0.000002
vn -0.000000 1.000000 -0.000002
vn 0.000000 1.000000 0.000000
vn 0.000000 1.000000 -0.000004
vn -0.000000 1.000000 -0.000004
vn 0.000000 0.286304 -0.958139
vn -0.132559 0.277713 -0.951474
vn 0.967384 0.253314 0.000000
vn 0.967384 0.253314 0.000000
vn 0.967384 0.253314 0.000000
vn 0.967384 0.253314 0.000000
vn 0.000000 0.315615 -0.948887
vn -0.007472 0.317545 -0.948214
vn -0.007037 0.317433 -0.948255
vn 0.000000 0.315615 -0.948887
vn -0.869331 0.300590 -0.392312
vn -0.869331 0.300590 -0.392312
vn -0.309134 0.324930 0.893788
vn -0.072248 0.334552 0.939604
vn -0.072248 0.334552 0.939604
vn -0.304093 0.325348 0.895364
vn 0.825860 0.329157 0.457832
vn 0.941677 0.332021 0.054829
vn 0.933643 0.349458 0.078679
vn 0.825081 0.341602 0.450055
vn -0.983319 0.181890 0.000000
vn -0.983459 0.181132 -0.000000
vn -0.000002 0.297571 0.954700
vn -0.226761 0.301871 0.925988
vn 0.884828 0.272159 -0.378165
vn 0.893261 0.297222 -0.337259
vn -0.064837 0.327781 -0.942526
vn 0.000000 0.314031 -0.949413
vn -0.983321 0.181879 -0.000000
vn -0.704021 0.000000 -0.710179
vn -0.704021 0.000000 -0.710179
vn -0.692448 0.046495 0.719968
vn -0.708358 0.000000 0.705853
vn -0.652379 0.145432 0.743809
vn -0.563977 0.129003 -0.815652
vn -0.319494 0.222101 0.921192
vn -0.254825 0.211200 0.943641
vn -0.374226 0.247190 -0.893785
vn -0.546540 0.292877 0.784549
vn -0.546540 0.292877 0.784549
vn -0.201658 0.744377 0.636582
vn -0.201658 0.744377 0.636582
vn -0.019059 0.320500 -0.947057
vn -0.019059 0.320500 -0.947057
vn -0.484970 0.285904 0.826476
vn -0.000000 1.000000 -0.000001
vn 0.000000 1.000000 0.000000
vn -0.000001 1.000000 -0.000003
vn -0.183589 0.341758 -0.921681
vn 0.896872 0.407341 0.172318
vn 0.820784 0.385895 0.421186
vn 0.000000 0.432743 0.901517
vn 0.000000 0.432743 0.901518
vn 0.905346 0.394740 -0.156615
vn -0.106393 0.432757 -0.895211
vn 0.000000 0.432747 -0.901515
vn -0.984876 0.173264 0.000000
vn -0.984875 0.173265 -0.000000
vn -0.468715 0.393091 0.791066
vn -0.468715 0.393091 0.791066
vn -0.319858 0.417415 -0.850562
vn -0.984875 0.173266 -0.000000
vn -0.818807 0.008640 -0.574003
vn -0.818807 0.008640 -0.574003
vn -0.818807 0.008640 -0.574003
vn -0.818807 0.008640 -0.574003
vn -0.645879 0.044711 0.762129
vn -0.645879 0.044711 0.762129
vn -0.645879 0.044711 0.762129
vn -0.645879 0.044711 0.762129
vn -0.860976 0.343234 0.375380
vn -0.860976 0.343234 0.375380
vn -0.860976 0.343234 0.375380
vn -0.860976 0.343234 0.375380
vn -0.815341 0.261304 0.516661
vn -0.815341 0.261304 0.516661
vn -0.815341 0.261304 0.516661
vn -0.815341 0.261304 0.516661
vn -0.772637 0.621820 0.127952
vn -0.772637 0.621820 0.127952
vn -0.772637 0.621820 0.127952
vn -0.772637 0.621820 0.127952
vn -0.697551 -0.122043 -0.706066
vn -0.697551 -0.122043 -0.706066
vn -0.697551 -0.122043 -0.706066
vn -0.697551 -0.122043 -0.706066
s 1
g rock_Face_Mesh_01 rock_Face_Mesh_09 mT_Kit_02_Group_01
usemtl lambert2SG
f 1/1/1 2/2/2 6/6/3 5/5/4
s 2
f 2/2/5 3/3/6 7/7/7 6/6/8
f 3/3/6 4/4/9 8/8/10 7/7/7
s off
f 25/35/11 26/36/12 27/37/13 28/38/14
s 3
f 6/6/15 7/7/16 10/11/17 9/10/18
f 7/7/16 8/8/19 11/12/20 10/11/17
s 4
f 32/43/21 33/44/22 34/45/23 35/46/24
s 3
f 9/10/18 10/11/17 13/15/25 12/14/26
f 10/11/17 11/12/20 14/16/27 13/15/25
s 4
f 35/46/24 34/45/23 36/47/28 37/48/29
s 3
f 12/14/26 13/15/25 17/19/30 16/18/31
f 13/15/25 14/16/27 18/20/32 17/19/30
s 5
f 15/17/33 16/18/34 20/22/35 19/21/36
f 16/18/34 17/19/37 21/23/38 20/22/35
f 17/19/37 18/20/39 22/24/40 21/23/38
s 6
f 23/26/41 22/25/42 18/28/43 14/29/44
f 24/27/45 23/26/41 14/29/44 11/30/46
f 4/4/47 24/27/45 11/30/46 8/8/48
s 7
f 84/94/49 85/95/50 86/33/51 87/96/52
f 85/95/50 88/97/53 89/98/54 86/99/51
s 8
f 59/72/55 61/73/56 62/74/57 60/34/58
s off
f 5/5/59 6/6/60 26/36/61 25/35/62
s 3
f 6/6/15 9/10/18 27/37/63 26/36/64
s 8
f 60/9/58 62/74/57 63/75/65 64/54/66
s 3
f 9/10/18 12/14/26 29/39/67 27/37/63
s 8
f 57/13/68 60/9/58 64/54/66 65/40/69
s 3
f 12/14/26 16/18/31 30/41/70 29/39/67
s 5
f 16/18/34 15/17/33 31/42/71 30/41/72
s 7
f 87/103/52 86/100/51 90/101/73 91/102/74
s off
f 28/38/75 27/37/76 33/44/77 32/43/78
f 27/37/79 29/39/80 34/45/81 33/44/82
s 9
f 65/40/83 64/78/84 67/79/85 68/58/86
s off
f 29/39/87 30/41/88 36/47/89 34/45/90
f 30/41/91 31/42/92 37/48/93 36/47/94
s 9
f 66/76/95 65/40/96 68/58/86 69/80/97
s 11
f 15/32/98 19/31/99 38/49/100 39/50/101
s 1
f 1/1/1 5/5/4 41/52/102 40/51/103
f 5/5/4 25/35/104 42/53/105 41/52/102
s 12
f 47/60/106 48/61/107 49/62/108 50/63/109
s 11
f 31/42/110 15/17/98 39/56/101 44/55/111
s 13
f 28/38/112 32/43/113 45/57/114 43/54/115
s 14
f 75/86/116 76/87/117 77/66/118 78/88/119
f 76/87/117 79/89/120 80/90/121 77/66/118
s 11
f 37/48/122 31/42/110 44/55/111 46/59/123
s off
f 25/35/124 28/38/125 48/61/126 47/60/127
s 15
f 28/38/128 43/54/129 49/62/130 48/61/131
s 8
f 64/78/66 63/75/65 70/81/132 71/82/133
s 16
f 42/53/134 25/35/135 47/60/136 50/63/137
s 17
f 32/43/138 35/46/139 52/65/140 51/64/141
s 9
f 68/58/86 67/79/85 72/83/142 73/84/143
s 13
f 45/57/114 32/43/113 51/64/144 53/67/145
s 17
f 35/46/139 37/48/146 54/68/147 52/65/140
s 11
f 37/48/122 46/59/123 55/69/148 54/68/149
s 9
f 69/80/97 68/58/86 73/84/143 74/85/150
s 11
f 39/50/101 38/49/100 56/70/151 58/71/152
s 1
f 40/51/103 41/52/102 62/74/153 61/73/154
f 41/52/102 42/53/105 63/75/155 62/74/153
s 11
f 44/55/111 39/56/101 58/77/152 66/76/156
s 13
f 43/54/115 45/57/114 67/79/157 64/78/158
s 11
f 46/59/123 44/55/111 66/76/156 69/80/159
s 16
f 42/53/134 50/63/137 70/81/160 63/75/161
s 12
f 50/63/109 49/62/108 71/82/162 70/81/163
s 15
f 49/62/130 43/54/129 64/78/164 71/82/165
s 13
f 45/57/114 53/67/145 72/83/166 67/79/157
s 14
f 78/88/119 77/66/118 81/91/167 82/92/168
f 77/66/118 80/90/121 83/93/169 81/91/167
s 11
f 55/69/148 46/59/123 69/80/159 74/85/170
s 17
f 51/64/141 52/65/140 76/87/171 75/86/172
s 13
f 53/67/145 51/64/144 75/86/173 78/88/174
s 17
f 52/65/140 54/68/147 79/89/175 76/87/171
s 11
f 54/68/149 55/69/148 80/90/176 79/89/177
s 9
f 73/84/143 72/83/142 82/92/178 81/91/179
s 13
f 72/83/166 53/67/145 78/88/180 82/92/181
s 11
f 55/69/148 74/85/170 83/93/182 80/90/176
s 9
f 74/85/150 73/84/143 81/91/179 83/93/183
s off
f 58/71/184 56/70/185 84/94/186 87/96/187
f 59/72/188 60/34/189 89/98/190 88/97/191
f 60/34/192 57/33/193 86/99/194 89/98/195
f 57/13/196 65/40/197 90/101/198 86/100/199
f 65/40/200 66/76/201 91/102/202 90/101/203
f 66/76/204 58/77/205 87/103/206 91/102/207
g default
v -5.861939 0.000000 6.754785
v -5.919365 0.000000 8.494180
v -5.166971 0.000000 10.577419
v -3.094572 0.000000 11.359176
v -1.354535 0.000000 11.326338
v -5.848083 2.127034 6.741124
v -5.905509 2.127034 8.480519
v -5.153115 2.127034 10.563758
v -3.080716 2.127034 11.345515
v -1.340680 2.127034 11.312677
v -5.848083 3.824045 6.741124
v -5.905509 4.254068 8.480519
v -5.153115 4.254067 10.563758
v -3.080716 4.254067 11.345515
v -1.340680 3.824045 11.312677
v -5.095201 4.254068 4.856506
v -3.682805 4.254067 6.289004
v -2.270408 4.254067 7.721502
v -0.041660 4.254067 9.981970
v 0.554385 4.254068 10.586498
v -3.403626 4.254068 2.126303
v 3.306940 4.254067 8.932374
v 3.966946 4.254068 9.601773
v -0.099728 4.254068 -0.068869
v 1.312669 4.254067 1.363629
v 5.529645 4.254067 6.740859
v 5.658517 4.254068 6.871566
v 1.245277 3.824045 -0.252700
v 2.985310 4.254067 -0.285541
v 5.057708 4.254067 0.496216
v 5.810103 4.254067 2.579455
v 5.752680 3.824045 4.318854
v 1.245277 2.127034 -0.252700
v 2.985310 2.127034 -0.285541
v 5.057708 2.127034 0.496216
v 5.810103 2.127034 2.579455
v 5.752680 2.127034 4.318854
v 1.231421 0.430023 -0.239039
v 2.971455 0.000000 -0.271880
v 5.043853 0.000000 0.509877
v 5.796248 0.000000 2.593116
v 5.738825 0.000000 4.332514
v -0.663647 0.000000 0.487137
v 6.498359 0.000000 7.797200
v -3.417481 0.000000 2.139963
v 4.806787 0.000000 10.527407
v -5.109057 0.000000 4.870167
v 0.540530 0.000000 10.600159
v 6.512214 2.127034 7.783539
v 4.820642 2.127034 10.513746
v 0.554385 2.127034 10.586498
v -0.649792 2.127034 0.473476
v -3.403626 2.127034 2.126303
v -5.095201 2.127034 4.856506
v -5.153115 6.880369 10.563758
v -3.080716 6.880369 11.345515
v -1.944183 6.880369 10.224929
v -3.356579 6.880369 8.792432
v -5.095201 6.880369 4.856506
v -4.768976 6.880369 7.359934
v -1.460100 6.880369 4.097489
v -3.403626 6.880369 2.126303
v 2.490589 6.880369 8.104405
v 0.862741 6.880369 1.217675
v 0.039860 6.880369 0.383083
v 4.713294 6.880369 5.912890
v 5.057708 6.880369 0.496216
v 2.985310 6.880369 -0.285541
v 5.810103 6.880369 2.579455
v -2.989726 11.343479 6.991948
v -2.270408 11.343479 7.721502
v -0.047703 11.343479 5.529987
v -1.632777 9.458591 4.267743
v -1.551091 11.343479 8.451057
v 1.719122 11.343479 7.321958
v -3.576303 9.458591 2.296556
v 0.405681 11.343479 1.543970
v -0.292867 11.343479 0.835481
v 3.018812 11.343479 2.506503
v 4.785637 11.343479 4.298474
v 5.057708 11.343479 0.496216
v 2.985310 11.343479 -0.285541
v 5.810103 11.343479 2.579455
v 0.590965 14.355115 3.692472
v 1.194809 14.355115 4.304910
v 2.175002 14.355115 3.338472
v 1.305584 14.355115 2.456681
v 1.761798 14.355115 4.455413
v 2.529734 14.355115 3.698253
v 3.815196 14.355115 1.721293
v 2.868976 14.355115 1.439175
vt 0.375000 0.000000
vt 0.437500 0.000000
vt 0.500000 0.000000
vt 0.562500 0.000000
vt 0.625000 0.000000
vt 0.375000 0.125000
vt 0.437500 0.125000
vt 0.500000 0.125000
vt 0.562500 0.125000
vt 0.625000 0.125000
vt 0.375000 0.250000
vt 0.437500 0.250000
vt 0.500000 0.250000
vt 0.562500 0.250000
vt 0.625000 0.250000
vt 0.375000 0.312500
vt 0.437500 0.312500
vt 0.500000 0.312500
vt 0.562500 0.312500
vt 0.625000 0.312500
vt 0.375000 0.375000
vt 0.437500 0.375000
vt 0.500000 0.375000
vt 0.562500 0.375000
vt 0.625000 0.375000
vt 0.375000 0.437500
vt 0.437500 0.437500
vt 0.500000 0.437500
vt 0.562500 0.437500
vt 0.625000 0.437500
vt 0.375000 0.500000
vt 0.437500 0.500000
vt 0.500000 0.500000
vt 0.562500 0.500000
vt 0.625000 0.500000
vt 0.375000 0.625000
vt 0.437500 0.625000
vt 0.500000 0.625000
vt 0.562500 0.625000
vt 0.625000 0.625000
vt 0.375000 0.750000
vt 0.437500 0.750000
vt 0.500000 0.750000
vt 0.562500 0.750000
vt 0.625000 0.750000
vt 0.875000 0.000000
vt 0.812500 0.000000
vt 0.750000 0.000000
vt 0.687500 0.000000
vt 0.875000 0.125000
vt 0.812500 0.125000
vt 0.750000 0.125000
vt 0.687500 0.125000
vt 0.875000 0.250000
vt 0.812500 0.250000
vt 0.750000 0.250000
vt 0.687500 0.250000
vt 0.125000 0.000000
vt 0.187500 0.000000
vt 0.250000 0.000000
vt 0.312500 0.000000
vt 0.125000 0.125000
vt 0.187500 0.125000
vt 0.250000 0.125000
vt 0.312500 0.125000
vt 0.125000 0.250000
vt 0.187500 0.250000
vt 0.250000 0.250000
vt 0.312500 0.250000
vt 0.500000 0.250000
vt 0.562500 0.250000
vt 0.562500 0.312500
vt 0.500000 0.312500
vt 0.375000 0.312500
vt 0.437500 0.312500
vt 0.375000 0.375000
vt 0.562500 0.375000
vt 0.437500 0.437500
vt 0.375000 0.437500
vt 0.562500 0.437500
vt 0.500000 0.500000
vt 0.437500 0.500000
vt 0.562500 0.500000
vt 0.437500 0.312500
vt 0.500000 0.312500
vt 0.437500 0.375000
vt 0.562500 0.312500
vt 0.562500 0.375000
vt 0.375000 0.375000
vt 0.437500 0.437500
vt 0.375000 0.437500
vt 0.562500 0.437500
vt 0.500000 0.500000
vt 0.437500 0.500000
vt 0.562500 0.500000
vt 0.437500 0.375000
vt 0.500000 0.375000
vt 0.437500 0.437500
vt 0.562500 0.375000
vt 0.562500 0.437500
vt 0.500000 0.437500
vt 0.500000 0.500000
vt 0.437500 0.500000
vn -0.999436 0.006299 -0.032996
vn -0.983731 0.007561 0.179486
vn -0.983038 0.003864 0.183362
vn -0.999450 0.003311 -0.032997
vn -0.712055 0.009147 0.702064
vn -0.712078 0.004579 0.702086
vn -0.193370 0.007561 0.981097
vn -0.197235 0.003864 0.980349
vn 0.018868 0.006299 0.999802
vn 0.018869 0.003310 0.999816
vn -0.979025 0.000000 0.203738
vn -0.999456 0.000000 -0.032997
vn -0.579713 0.000000 0.814820
vn -0.277830 0.000000 0.960630
vn 0.018869 0.000000 0.999822
vn -0.203735 0.977966 -0.045554
vn -0.035352 0.999344 -0.007904
vn -0.070959 0.997353 -0.015866
vn -0.203735 0.977966 -0.045554
vn 0.000000 1.000000 0.000000
vn 0.000000 1.000000 0.000000
vn 0.000000 1.000000 0.000000
vn 0.000000 1.000000 0.000000
vn 0.000000 1.000000 0.000000
vn 0.000000 1.000000 0.000000
vn 0.078287 0.923741 0.374933
vn 0.078287 0.923741 0.374933
vn 0.023595 0.993314 0.113004
vn 0.045292 0.975140 0.216912
vn -0.000000 1.000000 0.000000
vn -0.000000 1.000000 0.000000
vn -0.000000 1.000000 0.000000
vn -0.000000 1.000000 0.000000
vn -0.247947 0.830396 -0.498963
vn -0.129945 0.956417 -0.261499
vn -0.126218 0.958934 -0.253998
vn -0.247947 0.830396 -0.498963
vn 0.000000 1.000000 0.000000
vn 0.000000 1.000000 0.000000
vn -0.000000 1.000000 -0.000000
vn -0.000000 1.000000 -0.000000
vn -0.348083 0.872384 0.343198
vn -0.348083 0.872384 0.343198
vn -0.348082 0.872384 0.343198
vn -0.348083 0.872384 0.343198
vn 0.000000 1.000000 -0.000000
vn 0.000000 1.000000 -0.000000
vn 0.000000 1.000000 -0.000000
vn 0.000000 1.000000 -0.000000
vn 0.000000 1.000000 0.000000
vn 0.000000 1.000000 0.000000
vn 0.218341 0.975842 0.007711
vn 0.525229 0.850759 0.018549
vn -0.018005 0.966413 -0.256363
vn -0.018005 0.966413 -0.256363
vn -0.018005 0.966413 -0.256363
vn -0.018005 0.966413 -0.256363
vn 0.000000 1.000000 0.000000
vn 0.000000 1.000000 0.000000
vn 0.000000 1.000000 -0.000000
vn 0.000000 1.000000 -0.000000
vn 0.000000 1.000000 -0.000000
vn 0.000000 1.000000 -0.000000
vn 0.951957 0.304380 0.033620
vn 0.951957 0.304380 0.033620
vn -0.018870 0.000000 -0.999822
vn 0.277830 0.000000 -0.960630
vn 0.202654 -0.003953 -0.979242
vn -0.019304 -0.003511 -0.999808
vn 0.712085 0.000000 -0.702093
vn 0.712078 -0.004568 -0.702086
vn 0.964460 0.000000 -0.264228
vn 0.982919 -0.003865 -0.183998
vn 0.999456 0.000000 0.032995
vn 0.999450 -0.003323 0.032995
vn 0.216501 -0.007951 -0.976250
vn -0.019735 -0.006999 -0.999781
vn 0.712055 -0.009148 -0.702064
vn 0.983957 -0.007554 -0.178247
vn 0.999436 -0.006298 0.032994
vn 0.988591 -0.005473 0.150526
vn 0.976775 -0.007738 -0.214130
vn 0.981514 0.079902 -0.173913
vn 0.955809 0.199540 0.215900
vn 0.423328 0.003062 0.905971
vn 0.469909 0.197759 0.860277
vn 0.129317 0.005527 0.991588
vn 0.165890 0.080863 0.982823
vn 0.357821 0.003668 0.933783
vn 0.357823 0.001936 0.933788
vn 0.974533 0.188646 -0.121240
vn 0.910560 0.368075 0.188152
vn 0.457027 0.389614 0.799579
vn 0.198792 0.168728 0.965408
vn 0.357823 0.000000 0.933789
vn -0.357414 -0.004083 -0.933937
vn -0.464752 -0.002794 -0.885437
vn -0.471663 -0.028301 -0.881324
vn -0.322633 -0.046183 -0.945397
vn -0.703069 0.000014 -0.711122
vn -0.701579 -0.010677 -0.712512
vn -0.883894 0.002755 -0.467679
vn -0.882570 0.001402 -0.470179
vn -0.928634 0.003667 -0.370978
vn -0.928639 0.001936 -0.370980
vn -0.478727 0.017470 -0.877790
vn -0.280846 -0.095047 -0.955035
vn -0.689692 0.018842 -0.723857
vn -0.866205 0.000000 -0.499689
vn -0.928641 0.000000 -0.370981
vn -0.352946 0.000000 0.935643
vn -0.352946 0.000000 0.935643
vn 0.505957 0.143923 0.850467
vn 0.391518 0.258574 0.883093
vn 0.407513 0.241200 0.880770
vn 0.505957 0.143923 0.850467
vn -0.702093 -0.000001 -0.712085
vn -0.702093 -0.000001 -0.712085
vn -0.702093 -0.000001 -0.712085
vn -0.702093 -0.000001 -0.712085
vn -0.882765 -0.262049 0.389945
vn -0.763410 -0.393455 0.512248
vn -0.772769 -0.146173 0.617626
vn -0.882765 -0.262049 0.389945
vn -0.850063 0.000000 -0.526681
vn -0.580377 0.049221 -0.812859
vn -0.615764 -0.502231 0.607123
vn -0.709647 0.082690 0.699688
vn 0.502401 0.348200 0.791423
vn 0.515230 0.290774 0.806218
vn 0.709647 0.082689 -0.699689
vn 0.709647 0.082689 -0.699689
vn 0.708266 0.103438 -0.698327
vn 0.708265 0.103438 -0.698327
vn -0.468968 0.065830 -0.880759
vn 0.840700 0.310404 0.443704
vn 0.817548 0.229671 0.528079
vn 0.352947 0.000000 -0.935643
vn 0.352947 0.000000 -0.935643
vn -0.637110 -0.075887 -0.767028
vn -0.637110 -0.075887 -0.767028
vn -0.596863 -0.022931 -0.802015
vn -0.598782 -0.025362 -0.800510
vn 0.967747 0.178440 0.177835
vn 0.948770 0.115895 0.293945
vn 0.940537 0.000000 -0.339690
vn 0.940537 0.000000 -0.339690
vn -0.673819 0.323401 0.664364
vn -0.673819 0.323401 0.664364
vn -0.755127 0.154400 -0.637137
vn -0.755127 0.154400 -0.637137
vn -0.755127 0.154400 -0.637137
vn -0.755127 0.154400 -0.637137
vn -0.673819 0.323401 0.664364
vn -0.673819 0.323401 0.664364
vn 0.536157 0.307417 0.786149
vn 0.374181 0.269939 0.887199
vn -0.708956 -0.093642 0.699008
vn -0.708956 -0.093642 0.699008
vn -0.708956 -0.093642 0.699008
vn -0.708956 -0.093642 0.699008
vn 0.706651 0.123305 -0.696735
vn 0.706651 0.123305 -0.696735
vn -0.440409 0.047668 -0.896531
vn -0.440409 0.047668 -0.896531
vn 0.784560 0.244701 0.569726
vn 0.342048 0.162559 -0.925515
vn 0.342546 0.157333 -0.926233
vn -0.692139 0.241904 -0.680019
vn -0.569010 0.137491 -0.810755
vn 0.920233 0.062419 0.386360
vn 0.940538 0.000000 -0.339690
vn 0.940538 0.000000 -0.339690
vn -0.771930 0.442298 0.456614
vn -0.687102 0.490606 0.535908
vn -0.656975 0.504735 0.560024
vn -0.771930 0.442298 0.456614
vn -0.839062 0.349221 -0.417157
vn -0.839062 0.349221 -0.417157
vn -0.711505 0.382509 -0.589447
vn -0.534259 0.550036 0.641894
vn -0.534259 0.550036 0.641893
vn 0.583862 0.555372 0.592172
vn 0.583862 0.555372 0.592172
vn 0.662636 0.366145 -0.653338
vn 0.662636 0.366145 -0.653338
vn 0.662636 0.366145 -0.653338
vn 0.662636 0.366145 -0.653338
vn 0.702093 -0.000001 0.712085
vn 0.702093 -0.000001 0.712085
vn 0.702093 -0.000001 0.712085
vn 0.702093 -0.000001 0.712085
vn 0.292861 0.473016 -0.830956
vn 0.292861 0.473016 -0.830956
vn -0.519427 0.398552 -0.755878
s 1
g mT_Kit_02_Group_01 rock_Face_Mesh_04 rock_Face_Mesh_07 mT_Kit_01_Group_01 rock_Face_Mesh_010
usemtl lambert2SG
f 92/104/208 93/105/209 98/110/210 97/109/211
f 93/105/209 94/106/212 99/111/213 98/110/210
f 94/106/212 95/107/214 100/112/215 99/111/213
f 95/107/214 96/108/216 101/113/217 100/112/215
f 97/109/211 98/110/210 103/115/218 102/114/219
f 98/110/210 99/111/213 104/116/220 103/115/218
f 99/111/213 100/112/215 105/117/221 104/116/220
f 100/112/215 101/113/217 106/118/222 105/117/221
s 2
f 102/114/223 103/115/224 108/120/225 107/119/226
f 103/115/224 104/116/227 109/121/228 108/120/225
s off
f 146/173/229 147/174/230 148/175/231 149/176/232
s 3
f 105/117/233 106/118/234 111/123/235 110/122/236
s off
f 150/177/237 151/178/238 152/125/239 153/179/240
s 4
f 161/187/241 162/188/242 163/126/243 164/189/244
f 162/188/242 165/190/245 166/191/246 163/126/243
s 3
f 110/122/236 111/123/235 114/128/247 113/127/248
s off
f 167/192/249 164/189/250 168/193/251 169/194/252
s 5
f 175/199/253 176/200/254 177/131/255 178/201/256
f 176/200/254 179/202/257 180/203/258 177/204/255
s 3
f 113/127/248 114/128/247 118/133/259 117/132/260
s off
f 115/129/261 116/130/262 120/135/263 119/134/264
s 5
f 178/201/256 177/204/255 181/205/265 182/206/266
s off
f 170/131/267 171/195/268 174/198/269 172/196/270
s 3
f 117/132/260 118/133/259 123/138/271 122/137/272
s 6
f 119/134/273 120/135/274 125/140/275 124/139/276
f 120/135/274 121/136/277 126/141/278 125/140/275
f 121/136/277 122/137/279 127/142/280 126/141/278
f 122/137/279 123/138/281 128/143/282 127/142/280
f 124/139/276 125/140/275 130/145/283 129/144/284
f 125/140/275 126/141/278 131/146/285 130/145/283
f 126/141/278 127/142/280 132/147/286 131/146/285
f 127/142/280 128/143/282 133/148/287 132/147/286
s 7
f 135/150/288 133/149/289 128/153/290 140/154/291
f 137/151/292 135/150/288 140/154/291 141/155/293
f 139/152/294 137/151/292 141/155/293 142/156/295
f 96/108/296 139/152/294 142/156/295 101/113/297
f 140/154/291 128/153/290 123/157/298 118/158/299
f 141/155/293 140/154/291 118/158/299 114/159/300
f 142/156/295 141/155/293 114/159/300 111/160/301
f 101/113/297 142/156/295 111/160/301 106/118/302
s 8
f 129/161/303 134/162/304 143/166/305 124/165/306
f 134/162/304 136/163/307 144/167/308 143/166/305
f 136/163/307 138/164/309 145/168/310 144/167/308
f 138/164/309 92/104/311 97/109/312 145/168/310
f 124/165/306 143/166/305 115/170/313 119/169/314
f 143/166/305 144/167/308 112/171/315 115/170/313
f 144/167/308 145/168/310 107/172/316 112/171/315
f 145/168/310 97/109/312 102/114/317 107/172/316
s 1
f 104/116/220 105/117/221 147/174/318 146/173/319
s 9
f 105/117/320 110/122/321 148/175/322 147/174/323
s off
f 109/121/324 104/116/325 146/173/326 149/176/327
s 10
f 107/119/328 108/120/329 151/178/330 150/177/331
s 8
f 112/124/315 107/119/316 150/177/332 153/179/333
s 10
f 108/120/329 109/121/334 149/176/335 151/178/330
s 9
f 110/122/321 113/127/336 154/180/337 148/175/322
s 11
f 116/130/338 115/129/339 156/182/340 155/181/341
s 8
f 115/129/313 112/124/315 153/179/333 156/182/342
s 9
f 113/127/336 117/132/343 157/183/344 154/180/337
s 6
f 121/136/277 120/135/274 159/185/345 158/184/346
s 12
f 120/135/347 116/130/348 155/181/349 159/185/350
s 9
f 117/132/343 122/137/351 160/186/352 157/183/344
s 6
f 122/137/279 121/136/277 158/184/353 160/186/354
s 10
f 151/178/330 149/176/335 162/188/355 161/187/356
s off
f 152/125/357 151/178/358 161/187/359 164/189/360
s 10
f 149/176/335 148/175/361 165/190/362 162/188/355
s 9
f 148/175/322 154/180/337 166/191/363 165/190/364
s off
f 153/179/365 152/125/366 164/189/367 167/192/368
s 11
f 155/181/341 156/182/340 169/194/369 168/193/370
s 8
f 156/182/342 153/179/333 167/192/371 169/194/372
s 9
f 154/180/337 157/183/344 171/195/373 166/191/363
s 6
f 158/184/346 159/185/345 173/197/374 172/196/375
s 12
f 159/185/350 155/181/349 168/193/376 173/197/377
s 9
f 157/183/344 160/186/352 174/198/378 171/195/373
s 6
f 160/186/354 158/184/353 172/196/379 174/198/380
s 13
f 164/189/381 163/126/382 176/200/383 175/199/384
s 12
f 168/193/376 164/189/385 175/199/386 178/201/387
s 13
f 163/126/382 166/191/388 179/202/389 176/200/383
s 9
f 166/191/363 171/195/373 180/203/390 179/202/391
s off
f 171/195/392 170/131/393 177/204/394 180/203/395
f 170/131/396 172/196/397 181/205/398 177/204/399
s 6
f 172/196/375 173/197/374 182/206/400 181/205/401
s 12
f 173/197/377 168/193/376 178/201/387 182/206/402
g default
v -0.353903 0.022786 -11.087062
v -1.785384 0.022786 -8.957971
v -4.098667 0.022786 -5.517346
v -4.726889 0.022786 -3.319504
v -0.353903 3.257786 -11.087062
v -1.785384 3.257786 -8.957971
v -4.098667 3.257786 -5.517346
v -4.726889 3.257786 -3.319504
v 0.966475 3.257786 -10.199313
v -0.465006 5.225499 -8.070223
v -3.289927 4.588716 -3.868621
v -3.262113 3.257786 -0.911155
v 0.807564 4.444151 -1.113698
v -0.553178 3.257780 0.910181
v 7.772901 3.257786 -5.623055
v 4.873816 4.180162 -0.470326
v 1.957745 3.257786 1.481197
v 7.772901 0.022786 -5.623055
v 5.440880 0.022786 0.896510
v 2.155756 0.022786 2.731516
v -0.553178 0.022786 0.910181
v 2.355032 0.022786 -9.265726
v -3.262113 0.022786 -0.911155
v 2.355032 5.704852 -9.265726
v 0.923551 7.958273 -7.136635
v 3.632485 7.958273 -5.315300
v -0.342933 5.704852 -5.252950
v 2.366002 5.704852 -3.431615
v 6.466333 7.209554 -3.409979
v 7.772901 5.704852 -5.623055
v 5.074936 5.704852 -1.610279
v 10.756460 3.257786 -3.617077
v 9.324979 3.257786 -1.487987
v 9.324979 0.022786 -1.487987
v 10.756460 0.022786 -3.617077
v 8.058495 3.257786 0.395698
v 7.011696 0.022786 1.952638
v 9.511839 5.704852 -4.453890
v 7.805423 7.209554 -2.509650
v 7.219593 5.704852 -0.168333
v 2.705772 9.974225 -9.787393
v 0.923551 9.974225 -7.136635
v 3.632485 9.974225 -5.315300
v 5.414706 11.584089 -7.966058
v 6.543843 9.974225 -3.357866
v 8.127129 9.974225 -5.384892
v 3.674481 9.974225 -3.044348
v 4.222526 9.974225 -2.675874
v 7.129036 9.974225 -2.964415
v 8.357222 9.974225 -5.230190
v 2.046754 12.020428 -8.807213
v 1.231829 12.020428 -7.595147
v 3.632485 14.230087 -5.315300
v 5.063966 14.230087 -7.444390
v 5.476859 14.230087 -5.205648
v 6.215750 14.230087 -5.539607
v 7.621251 0.022786 -7.905587
v 7.621251 3.257786 -7.905587
v 4.155977 0.022786 -10.235443
v 3.948165 3.257787 -10.375164
v 4.331196 5.704853 -10.117636
v 6.073641 5.704852 -8.946114
v 7.661108 5.704852 -7.878790
v 4.526030 9.974225 -9.986640
v 6.113498 10.652197 -8.919316
v 7.751478 9.974225 -7.818030
v 7.736132 0.022786 -9.533229
v 6.678028 0.022786 -10.244639
v 6.863049 3.257786 -10.120227
v 7.736131 3.257786 -9.533230
v 5.869826 0.022786 -10.788028
v 5.662015 3.257787 -10.927749
v 5.120611 5.704853 -11.291759
v 6.237406 5.015131 -10.540874
v 7.775982 5.015131 -9.506422
v 5.315445 8.396526 -11.160763
v 6.277271 9.074498 -10.514086
vt 0.375000 0.000000
vt 0.458333 0.000000
vt 0.541667 0.000000
vt 0.625000 0.000000
vt 0.375000 0.250000
vt 0.458333 0.250000
vt 0.541667 0.250000
vt 0.625000 0.250000
vt 0.375000 0.333333
vt 0.458333 0.333333
vt 0.541667 0.333333
vt 0.625000 0.333333
vt 0.375000 0.416667
vt 0.458333 0.416667
vt 0.541667 0.416667
vt 0.625000 0.416667
vt 0.375000 0.500000
vt 0.458333 0.500000
vt 0.541667 0.500000
vt 0.625000 0.500000
vt 0.375000 0.750000
vt 0.541667 0.750000
vt 0.625000 0.750000
vt 0.875000 0.000000
vt 0.791667 0.000000
vt 0.708333 0.000000
vt 0.875000 0.250000
vt 0.791667 0.250000
vt 0.708333 0.250000
vt 0.125000 0.000000
vt 0.291667 0.000000
vt 0.125000 0.250000
vt 0.208333 0.250000
vt 0.291667 0.250000
vt 0.375000 0.333333
vt 0.458333 0.333333
vt 0.375000 0.416667
vt 0.541667 0.333333
vt 0.541667 0.416667
vt 0.458333 0.500000
vt 0.375000 0.500000
vt 0.541667 0.500000
vt 0.458333 0.750000
vt 0.375000 0.750000
vt 0.375000 0.500000
vt 0.541667 0.500000
vt 0.541667 0.750000
vt 0.375000 0.500000
vt 0.458333 0.500000
vt 0.541667 0.500000
vt 0.375000 0.333333
vt 0.458333 0.333333
vt 0.458333 0.416667
vt 0.375000 0.416667
vt 0.375000 0.500000
vt 0.541667 0.416667
vt 0.541667 0.500000
vt 0.458333 0.500000
vt 0.458333 0.500000
vt 0.375000 0.500000
vt 0.375000 0.333333
vt 0.458333 0.333333
vt 0.458333 0.416667
vt 0.375000 0.416667
vt 0.458333 0.500000
vt 0.375000 0.500000
vt 0.125000 0.000000
vt 0.125000 0.250000
vt 0.291667 0.000000
vt 0.291667 0.250000
vt 0.375000 0.333333
vt 0.375000 0.333333
vt 0.375000 0.500000
vt 0.375000 0.500000
vt 0.375000 0.333333
vt 0.375000 0.416667
vt 0.375000 0.500000
vt 0.125000 0.000000
vt 0.208333 0.000000
vt 0.125000 0.250000
vt 0.291667 0.000000
vt 0.291667 0.250000
vt 0.375000 0.333333
vt 0.375000 0.333333
vt 0.375000 0.416667
vt 0.375000 0.500000
vt 0.375000 0.500000
vt 0.375000 0.333333
vt 0.375000 0.416667
vn -0.829869 0.000000 -0.557958
vn -0.829869 0.000000 -0.557958
vn -0.829869 0.000000 -0.557958
vn -0.829869 0.000000 -0.557958
vn -0.886604 0.000000 -0.462528
vn -0.886604 0.000000 -0.462528
vn -0.961493 0.000000 -0.274829
vn -0.961493 0.000000 -0.274829
vn -0.241928 0.808603 -0.536314
vn -0.515347 0.741623 -0.429433
vn -0.539191 0.731641 -0.417102
vn -0.241928 0.808603 -0.536314
vn -0.643154 0.709634 -0.287702
vn -0.546730 0.837018 0.022071
vn -0.650108 0.750612 0.118070
vn -0.292579 0.886229 0.359158
vn -0.465195 0.828111 -0.312771
vn -0.465195 0.828111 -0.312771
vn -0.377715 0.890415 -0.253955
vn -0.370936 0.894544 -0.249396
vn -0.393100 0.709671 0.584670
vn -0.393100 0.709671 0.584670
vn -0.393100 0.709671 0.584670
vn -0.393100 0.709671 0.584670
vn -0.166486 0.899030 0.405003
vn -0.145594 0.900408 0.409960
vn 0.000001 1.000000 0.000001
vn 0.000001 1.000000 0.000001
vn 0.000000 1.000000 0.000000
vn 0.000000 1.000000 0.000000
vn 0.000000 1.000000 0.000000
vn 0.000000 1.000000 0.000000
vn -0.043459 0.901174 0.431273
vn -0.043459 0.901174 0.431273
vn 0.826310 0.250348 0.504518
vn 0.825660 0.214389 0.521845
vn 0.829869 0.000000 0.557958
vn 0.829869 0.000000 0.557958
vn 0.826646 0.151016 0.542081
vn 0.829869 0.000000 0.557958
vn 0.453094 0.338817 0.824566
vn 0.453094 0.338817 0.824566
vn 0.453094 0.338817 0.824566
vn 0.453094 0.338818 0.824566
vn -0.492007 0.076269 0.867244
vn -0.411221 0.160806 0.897240
vn -0.411221 0.160806 0.897240
vn -0.492007 0.076269 0.867244
vn -0.711801 0.000000 0.702381
vn -0.711801 0.000000 0.702381
vn -0.854384 0.000000 0.519643
vn -0.854384 0.000000 0.519643
vn 0.557953 0.000004 -0.829872
vn 0.557958 0.000003 -0.829869
vn 0.557958 0.000002 -0.829869
vn 0.557954 0.000001 -0.829872
vn 0.557962 0.000002 -0.829867
vn 0.557963 0.000002 -0.829866
vn 0.557958 0.000000 -0.829869
vn 0.557958 0.000000 -0.829869
vn 0.557958 0.000000 -0.829869
vn 0.557958 0.000000 -0.829869
vn -0.298831 0.185450 -0.936113
vn -0.561082 0.648041 -0.515005
vn -0.574478 0.660894 -0.482901
vn -0.317891 0.301005 -0.899078
vn 0.557962 -0.000003 -0.829866
vn 0.557962 -0.000000 -0.829867
vn -0.666381 0.739286 -0.096914
vn -0.666381 0.739286 -0.096914
vn -0.207277 0.918295 0.337300
vn -0.196895 0.886504 0.418740
vn -0.194924 0.880244 0.432637
vn -0.207277 0.918295 0.337300
vn 0.797713 0.407259 0.444741
vn 0.807694 0.363259 0.464406
vn 0.557954 -0.000002 -0.829872
vn -0.253798 0.620950 0.741625
vn -0.233442 0.677232 0.697754
vn 0.775130 0.405716 0.484322
vn 0.557958 0.000000 -0.829869
vn 0.557958 0.000000 -0.829869
vn 0.557958 0.000000 -0.829869
vn 0.557958 0.000000 -0.829869
vn -0.286074 0.368416 0.884551
vn -0.286074 0.368416 0.884551
vn -0.286074 0.368416 0.884551
vn -0.286074 0.368416 0.884551
vn 0.557958 0.000001 -0.829869
vn 0.557958 0.000001 -0.829869
vn 0.000000 1.000000 0.000000
vn 0.000000 1.000000 0.000000
vn 0.000000 1.000000 0.000000
vn 0.000000 1.000000 0.000000
vn -0.308287 0.833494 0.458526
vn -0.308287 0.833494 0.458526
vn -0.308287 0.833494 0.458526
vn -0.308287 0.833494 0.458526
vn -0.327121 0.327729 0.886332
vn -0.327121 0.327730 0.886332
vn -0.829869 0.000000 -0.557958
vn -0.829869 0.000000 -0.557958
vn -0.829869 0.000000 -0.557958
vn -0.829869 0.000000 -0.557958
vn -0.557958 0.000000 0.829869
vn -0.557958 0.000000 0.829869
vn -0.530925 0.091472 0.842468
vn -0.613442 0.053262 0.787941
vn 0.557961 -0.000004 -0.829867
vn 0.557961 -0.000004 -0.829867
vn 0.557958 0.000001 -0.829869
vn 0.557958 0.000001 -0.829869
vn 0.557958 0.000001 -0.829869
vn 0.557958 0.000001 -0.829869
vn -0.962731 0.210856 -0.169377
vn -0.962731 0.210856 -0.169377
vn -0.962731 0.210856 -0.169377
vn -0.962731 0.210856 -0.169377
vn -0.555418 0.095295 0.826093
vn -0.555418 0.095295 0.826093
vn -0.555418 0.095295 0.826093
vn -0.555418 0.095295 0.826093
vn 0.496303 0.177127 0.849888
vn 0.496303 0.177127 0.849888
vn 0.496303 0.177127 0.849888
vn 0.496303 0.177127 0.849888
vn -0.557958 -0.000001 0.829869
vn -0.557958 -0.000001 0.829869
vn -0.557958 -0.000001 0.829869
vn -0.557958 -0.000001 0.829869
vn 0.829712 0.298525 0.471657
vn 0.829712 0.298525 0.471657
vn 0.557958 0.000002 -0.829869
vn 0.557958 0.000002 -0.829869
vn -0.829869 0.000000 -0.557958
vn -0.829869 0.000000 -0.557958
vn -0.492114 0.126464 0.861296
vn -0.646144 0.086778 0.758266
vn 0.565028 0.328270 -0.756956
vn 0.269283 0.345661 -0.898891
vn 0.269283 0.345661 -0.898891
vn 0.628012 0.318672 -0.709965
vn -0.394265 0.147492 0.907084
vn -0.394265 0.147492 0.907084
vn 0.658620 0.382860 0.647794
vn 0.658620 0.382860 0.647794
vn 0.658620 0.382860 0.647794
vn 0.658620 0.382860 0.647794
vn 0.774506 0.283904 -0.565277
vn 0.774506 0.283904 -0.565277
vn 0.998026 -0.003353 -0.062714
vn 0.997800 0.000000 -0.066293
vn 0.997800 0.000000 -0.066293
vn 0.998025 -0.003338 -0.062730
vn -0.227554 -0.213745 -0.950017
vn -0.219421 0.020268 -0.975420
vn -0.227554 -0.213745 -0.950017
vn -0.239752 0.109117 -0.964683
vn 0.995573 -0.034134 -0.087577
vn 0.995639 -0.033633 -0.087014
vn -0.266744 -0.027033 -0.963388
vn -0.266744 -0.027033 -0.963388
vn 0.003526 0.781352 -0.624081
vn 0.350321 0.852619 -0.387707
vn 0.310738 0.832838 -0.458064
vn 0.052115 0.743799 -0.666368
vn 0.566458 0.806792 -0.167965
vn 0.566458 0.806792 -0.167965
vn 0.993488 -0.048113 -0.103280
vn 0.993488 -0.048113 -0.103280
vn 0.997370 -0.007840 0.072055
vn 0.997518 -0.000002 0.070406
vn 0.997518 -0.000002 0.070406
vn 0.997371 -0.007769 0.072041
vn -0.306302 -0.060707 -0.949997
vn -0.409337 -0.051968 -0.910902
vn -0.403575 -0.052485 -0.913440
vn -0.306302 -0.060707 -0.949997
vn -0.714601 0.023114 -0.699150
vn -0.714601 0.023114 -0.699150
vn 0.244497 0.898878 -0.363649
vn 0.244497 0.898878 -0.363649
vn 0.244497 0.898878 -0.363649
vn 0.244497 0.898877 -0.363649
vn 0.997018 -0.019853 0.074575
vn 0.997018 -0.019853 0.074575
vn -0.806483 0.067254 -0.587420
vn -0.806483 0.067254 -0.587420
vn 0.128575 0.675757 -0.725824
vn 0.128575 0.675757 -0.725824
vn 0.994020 -0.009447 0.108793
vn 0.994020 -0.009447 0.108793
vn 0.994020 -0.009447 0.108793
vn 0.994020 -0.009447 0.108793
s 1
g mT_Kit_02_Group_01 rock_Face_Mesh_05 rock_Face_Mesh_011
usemtl lambert2SG
f 183/207/403 184/208/404 188/212/405 187/211/406
f 184/208/404 185/209/407 189/213/408 188/212/405
f 185/209/407 186/210/409 190/214/410 189/213/408
s 2
f 187/211/411 188/212/412 192/216/413 191/215/414
f 188/212/412 189/213/415 193/217/416 192/216/413
f 189/213/415 190/214/417 194/218/418 193/217/416
s 3
f 233/267/419 234/268/420 235/269/421 236/270/422
s off
f 207/242/423 209/244/424 210/245/425 208/220/426
s 2
f 193/217/416 194/218/418 196/222/427 195/221/428
s 3
f 236/270/422 235/269/421 237/271/429 238/272/430
s off
f 225/259/431 229/262/432 230/263/433 227/264/434
s 2
f 195/221/428 196/222/427 199/226/435 198/225/436
s 4
f 214/251/437 215/224/438 216/249/439 217/250/440
f 215/224/438 218/252/441 219/253/442 216/249/439
s off
f 198/225/443 199/226/444 202/229/445 201/228/446
s 5
f 203/231/447 202/230/448 199/233/449 196/234/450
f 205/232/451 203/231/447 196/234/450 194/235/452
f 186/210/453 205/232/451 194/235/452 190/214/454
s 6
f 249/284/455 250/285/456 251/239/457 252/286/458
f 250/285/456 253/287/459 254/288/460 251/239/457
s off
f 204/237/461 183/207/462 187/211/463 191/240/464
s 7
f 191/215/465 192/216/466 207/242/467 206/241/468
s 6
f 251/219/457 254/289/460 255/290/469 256/243/470
s 7
f 192/216/466 193/217/471 209/244/472 207/242/467
s 8
f 193/217/473 195/221/474 210/245/475 209/244/476
s 4
f 215/224/438 214/251/437 220/254/477 221/255/478
s 6
f 252/293/458 251/219/457 256/291/470 257/292/479
s 8
f 195/221/474 198/225/480 213/248/481 210/245/475
s 4
f 218/252/441 215/224/438 221/255/478 222/256/482
s 9
f 200/227/483 197/223/484 214/251/485 217/250/486
s off
f 198/225/487 201/228/488 219/253/489 218/252/490
s 9
f 197/223/484 212/247/491 220/254/492 214/251/485
s off
f 228/261/493 227/264/494 231/265/495 232/266/496
f 211/246/497 213/248/498 222/256/499 221/255/500
s 8
f 213/248/481 198/225/480 218/252/501 222/256/502
s 10
f 206/241/503 207/242/504 224/258/505 223/257/506
s 11
f 207/242/507 208/220/508 225/259/509 224/258/510
s 6
f 256/291/470 255/290/469 258/294/511 259/295/512
s off
f 245/279/513 244/243/514 247/282/515 248/283/516
f 208/220/517 210/245/518 229/262/519 225/259/520
f 210/245/521 213/248/522 230/263/523 229/262/524
f 213/248/525 211/246/526 227/264/527 230/263/528
f 211/246/529 221/255/530 231/265/531 227/264/532
s 4
f 221/255/478 220/254/477 232/266/533 231/265/534
s 9
f 220/254/492 212/247/491 228/261/535 232/266/536
s 10
f 223/257/506 224/258/505 234/268/537 233/267/538
s 11
f 224/258/510 225/259/509 235/269/539 234/268/540
s 12
f 226/260/541 223/257/542 233/267/543 236/270/544
s 11
f 225/259/509 227/246/545 237/271/546 235/269/539
s off
f 227/246/547 228/261/548 238/272/549 237/271/550
s 12
f 228/261/551 226/260/541 236/270/544 238/272/552
s 13
f 197/238/553 200/236/554 239/273/555 240/274/556
s 7
f 204/237/557 191/240/465 242/276/558 241/275/559
f 191/215/465 206/241/468 243/278/560 242/277/558
s 13
f 212/247/561 197/223/553 240/280/556 245/279/562
s 7
f 206/241/468 223/257/563 246/281/564 243/278/560
s 14
f 223/257/565 226/260/566 247/282/567 246/281/568
f 226/260/566 228/261/569 248/283/570 247/282/567
s 13
f 228/261/571 212/247/561 245/279/562 248/283/572
s 15
f 240/274/573 239/273/574 249/284/575 252/286/576
s 16
f 241/275/577 242/276/578 254/288/579 253/287/580
f 242/277/578 243/278/581 255/290/582 254/289/579
s off
f 244/243/583 245/279/584 257/292/585 256/291/586
s 15
f 245/279/587 240/280/573 252/293/576 257/292/588
s 16
f 243/278/581 246/281/589 258/294/590 255/290/582
s 14
f 246/281/568 247/282/567 259/295/591 258/294/592
s off
f 247/282/593 244/243/594 256/291/595 259/295/596
g default
v -5.340651 0.000000 -2.552227
v -3.123509 0.000000 -2.552227
v -0.906366 0.000000 -2.552227
v 1.310777 0.000000 -2.552227
v -5.173966 1.365808 -2.843920
v -2.992718 1.467805 -2.964490
v -1.037157 1.467805 -2.964490
v 0.918409 1.467805 -2.964490
v -4.948284 2.672475 -2.964490
v -2.992718 2.672475 -2.964490
v -1.037157 2.672475 -2.964490
v 0.918409 2.672475 -2.964490
v -7.026366 2.672475 -5.435096
v 0.918409 2.242930 -5.019209
v -7.026366 2.672475 -6.592786
v 0.918409 2.242930 -7.073929
v -4.948284 2.672475 -9.128648
v -2.992718 2.672475 -9.128648
v -1.037157 2.672475 -9.128648
v 0.918409 2.672475 -9.128648
v -5.340651 1.365808 -9.540911
v -3.123509 1.365808 -9.540911
v -0.906366 1.365808 -9.540911
v 1.310777 1.365808 -9.540911
v -5.340651 0.000000 -9.540911
v -3.123509 0.000000 -9.540911
v -0.906366 0.000000 -9.540911
v 1.310777 0.000000 -9.540911
v -7.831644 0.000000 -7.178723
v 1.310777 0.000000 -7.211350
v -7.831644 0.000000 -4.849161
v 1.310777 0.000000 -4.881789
v 1.310777 0.936263 -7.211350
v 1.310777 0.936263 -4.881789
v -7.831644 1.365808 -7.178723
v -7.831644 1.365808 -4.849161
v -4.948284 2.992861 -2.964490
v -2.992718 2.992861 -2.964490
v -6.293646 2.992861 -4.986582
v -1.037157 2.992861 -2.964490
v 0.918409 2.992861 -2.964490
v 0.918409 2.745656 -5.019209
v -6.293646 3.430752 -6.578711
v 0.918409 2.745656 -7.073929
v -2.992718 2.992861 -9.128648
v -4.948284 3.430752 -8.783601
v -1.037157 2.992861 -9.128648
v 0.918409 2.992861 -9.128648
v -5.340651 4.451822 -3.210708
v -3.123509 4.451822 -3.210708
v -5.340651 4.485292 -4.881788
v -0.906366 3.861062 -3.210708
v -0.906366 4.049327 -4.881788
v 0.703316 3.423564 -3.210708
v 1.310777 3.423171 -4.881788
v -5.340651 4.485292 -7.211350
v -0.906366 4.049327 -7.211350
v 1.310777 3.423171 -7.211350
v -3.123509 4.451822 -8.745008
v -5.340651 4.451822 -8.745008
v -0.906366 3.861062 -8.745008
v 0.703316 3.423564 -8.745008
v -5.340651 7.062118 -3.210708
v -3.123509 7.062118 -3.210708
v -3.123509 8.408667 -4.881788
v -5.340651 8.253871 -4.881788
v -0.906366 6.471357 -3.210708
v -0.906366 6.659623 -4.881788
v -3.123509 8.408667 -7.211350
v -5.340651 8.253871 -7.211350
v -0.906366 6.659623 -7.211350
v -3.123509 7.062118 -8.745008
v -5.340651 7.062118 -8.745008
v -0.906366 6.471357 -8.745008
v -4.948284 5.603157 -5.019209
v -4.948284 6.041048 -6.611339
v -4.558132 8.009318 -3.599934
v -3.906028 8.009318 -3.599934
v -3.906028 9.355868 -5.035961
v -4.558132 9.201071 -5.035961
v -3.906028 9.355868 -7.037847
v -4.558132 9.201071 -7.037847
v -3.906028 8.009318 -8.355782
v -4.558132 8.009318 -8.355782
v -2.528836 4.926051 -2.840135
v -0.791224 4.565480 -2.976745
v -0.791224 5.949871 -2.976745
v -2.528836 6.310442 -2.840135
v -0.042026 4.640175 -4.788834
v -0.042026 6.024566 -4.788834
v -0.042026 4.640175 -7.311473
v -0.042026 6.024566 -7.311473
v -0.791224 4.565480 -8.990206
v -0.791224 5.949871 -8.990206
v -2.528836 4.926051 -9.115581
v -2.528836 6.310442 -9.115581
vt 0.375000 0.000000
vt 0.458333 0.000000
vt 0.541667 0.000000
vt 0.625000 0.000000
vt 0.375000 0.125000
vt 0.458333 0.125000
vt 0.541667 0.125000
vt 0.625000 0.125000
vt 0.375000 0.250000
vt 0.458333 0.250000
vt 0.541667 0.250000
vt 0.625000 0.250000
vt 0.375000 0.333333
vt 0.458333 0.333333
vt 0.541667 0.333333
vt 0.625000 0.333333
vt 0.375000 0.416667
vt 0.458333 0.416667
vt 0.541667 0.416667
vt 0.625000 0.416667
vt 0.375000 0.500000
vt 0.458333 0.500000
vt 0.541667 0.500000
vt 0.625000 0.500000
vt 0.375000 0.625000
vt 0.458333 0.625000
vt 0.541667 0.625000
vt 0.625000 0.625000
vt 0.375000 0.750000
vt 0.458333 0.750000
vt 0.541667 0.750000
vt 0.625000 0.750000
vt 0.875000 0.000000
vt 0.791667 0.000000
vt 0.708333 0.000000
vt 0.875000 0.125000
vt 0.791667 0.125000
vt 0.708333 0.125000
vt 0.875000 0.250000
vt 0.791667 0.250000
vt 0.708333 0.250000
vt 0.125000 0.000000
vt 0.208333 0.000000
vt 0.291667 0.000000
vt 0.125000 0.125000
vt 0.208333 0.125000
vt 0.291667 0.125000
vt 0.125000 0.250000
vt 0.208333 0.250000
vt 0.291667 0.250000
vt 0.375000 0.250000
vt 0.458333 0.250000
vt 0.375000 0.333333
vt 0.541667 0.250000
vt 0.625000 0.250000
vt 0.625000 0.333333
vt 0.375000 0.416667
vt 0.625000 0.416667
vt 0.458333 0.500000
vt 0.375000 0.500000
vt 0.541667 0.500000
vt 0.625000 0.500000
vt 0.375000 0.250000
vt 0.458333 0.250000
vt 0.375000 0.333333
vt 0.541667 0.250000
vt 0.625000 0.250000
vt 0.625000 0.333333
vt 0.375000 0.416667
vt 0.625000 0.416667
vt 0.458333 0.500000
vt 0.375000 0.500000
vt 0.541667 0.500000
vt 0.625000 0.500000
vt 0.375000 0.250000
vt 0.458333 0.250000
vt 0.375000 0.333333
vt 0.541667 0.250000
vt 0.541667 0.333333
vt 0.541667 0.416667
vt 0.458333 0.500000
vt 0.375000 0.500000
vt 0.375000 0.416667
vt 0.541667 0.500000
vt 0.375000 0.416667
vt 0.375000 0.333333
vt 0.375000 0.250000
vt 0.458333 0.250000
vt 0.458333 0.333333
vt 0.375000 0.333333
vt 0.458333 0.416667
vt 0.375000 0.416667
vt 0.458333 0.500000
vt 0.375000 0.500000
vt 0.375000 0.416667
vt 0.458333 0.250000
vt 0.541667 0.250000
vt 0.541667 0.250000
vt 0.458333 0.250000
vt 0.541667 0.333333
vt 0.541667 0.333333
vt 0.541667 0.416667
vt 0.541667 0.416667
vt 0.541667 0.500000
vt 0.541667 0.500000
vt 0.458333 0.500000
vt 0.458333 0.500000
vn 0.021070 0.238965 0.970800
vn 0.011146 0.253825 0.967186
vn 0.012134 0.153700 0.988043
vn 0.023841 0.165196 0.985973
vn 0.000000 0.270407 0.962746
vn 0.000000 0.156785 0.987633
vn 0.000000 0.270407 0.962746
vn 0.000000 0.166539 0.986035
vn 0.011710 0.019009 0.999751
vn 0.022984 0.037310 0.999039
vn 0.000000 0.000000 1.000000
vn 0.000000 0.000000 1.000000
vn -0.034200 0.531334 0.846472
vn -0.034200 0.531334 0.846472
vn -0.177467 0.929887 0.322203
vn -0.170093 0.918496 0.356978
vn 0.457311 0.791305 0.405835
vn 0.432376 0.819420 0.376300
vn 0.553325 0.817309 0.160737
vn 0.614258 0.766498 0.187530
vn 0.266391 0.958422 0.102294
vn 0.266391 0.958422 0.102294
vn 0.270327 0.962181 0.033634
vn 0.270076 0.962057 0.038788
vn -0.179193 0.926571 -0.330690
vn -0.171314 0.913403 -0.369251
vn 0.555708 0.814553 -0.166411
vn 0.613204 0.765604 -0.194505
vn 0.270416 0.962142 -0.034033
vn 0.270144 0.961989 -0.039984
vn -0.031784 0.514052 -0.857170
vn -0.031784 0.514052 -0.857170
vn 0.426756 0.808768 -0.404689
vn 0.446711 0.781547 -0.435469
vn 0.266130 0.957484 -0.111351
vn 0.266130 0.957484 -0.111351
vn -0.012355 0.301802 -0.953290
vn -0.007445 0.277137 -0.960801
vn 0.000000 0.147832 -0.989013
vn 0.000000 0.133032 -0.991112
vn 0.000000 0.248500 -0.968632
vn 0.000000 0.147832 -0.989013
vn 0.000000 0.255242 -0.966877
vn 0.000000 0.133032 -0.991112
vn 0.000000 0.000000 -1.000000
vn 0.000000 0.000000 -1.000000
vn 0.000000 0.000000 -1.000000
vn 0.000000 0.000000 -1.000000
vn 1.000000 0.000000 0.000000
vn 1.000000 0.000000 0.000000
vn 0.987741 0.153188 0.030017
vn 0.988553 0.150142 0.014839
vn 0.994751 0.094944 0.038159
vn 0.985744 0.164821 0.033807
vn 0.982619 0.172244 0.069226
vn 0.984355 0.164196 0.063907
vn 0.975472 0.216015 0.042328
vn 0.974522 0.223228 0.021849
vn 0.984112 0.176280 0.021192
vn 0.993022 0.110339 0.041624
vn -0.688098 0.000000 -0.725618
vn -0.883233 0.000000 -0.468935
vn -0.843095 0.265183 -0.467834
vn -0.681600 0.276545 -0.677454
vn -0.864411 0.078359 0.496643
vn -0.826612 0.268467 0.494609
vn -0.636557 0.120195 0.761806
vn -0.637475 0.279168 0.718116
vn -0.744304 0.569382 -0.349021
vn -0.653327 0.500597 -0.567949
vn -0.745168 0.551853 0.374410
vn -0.640082 0.426516 0.639045
vn 0.011347 0.151782 0.988349
vn 0.000000 0.141970 0.989871
vn -0.874658 0.267146 0.404484
vn -0.860313 0.434045 0.267332
vn 0.025458 0.190361 0.981384
vn 0.026349 0.214724 0.976319
vn 0.971381 -0.235328 0.032245
vn 0.993652 -0.071794 0.086616
vn -0.863016 0.492372 -0.113018
vn 0.972188 -0.231942 -0.032449
vn -0.062273 0.185515 -0.980666
vn -0.011406 0.234702 -0.972000
vn -0.811560 0.360395 -0.459876
vn 0.038679 0.289305 -0.956455
vn 0.995310 -0.054316 -0.080048
vn 0.040407 0.329282 -0.943367
vn -0.037518 0.043562 0.998346
vn 0.000000 0.051430 0.998677
vn -0.988344 0.075058 0.132451
vn -0.989839 0.070104 0.123709
vn 0.006156 0.075363 0.997137
vn 0.043764 0.356640 0.933216
vn 0.930111 -0.360449 0.070506
vn 0.975795 -0.139557 0.168370
vn -0.996114 0.079055 0.038824
vn -0.977463 0.200185 0.067017
vn -0.986802 -0.160929 -0.017969
vn -0.986802 -0.160929 -0.017969
vn 0.931803 -0.355924 -0.071141
vn -0.016624 0.039187 -0.999094
vn -0.051550 0.053469 -0.997238
vn -0.991485 0.054546 -0.118251
vn -0.993201 0.048759 -0.105706
vn 0.019203 0.179496 -0.983571
vn 0.977734 -0.117825 -0.173646
vn 0.062659 0.510618 -0.857522
vn -0.034746 0.079933 0.996194
vn 0.000000 0.049537 0.998772
vn -1.000000 0.000000 0.000000
vn -1.000000 0.000000 0.000000
vn -0.150391 -0.134438 0.979443
vn 0.016036 -0.182777 0.983024
vn 0.099350 0.133665 0.986034
vn -0.121581 0.163482 0.979026
vn 0.925264 -0.214489 0.312859
vn 0.941467 -0.308382 0.136164
vn 0.938101 0.315554 0.142802
vn 0.915379 0.196762 0.351234
vn 0.940221 -0.310199 -0.140576
vn 0.936858 0.317359 -0.146901
vn 0.000000 0.049537 -0.998772
vn -0.034799 0.080478 -0.996149
vn -1.000000 0.000000 0.000000
vn -1.000000 0.000000 0.000000
vn 0.917589 -0.213843 -0.335114
vn 0.905884 0.194842 -0.376047
vn 0.010477 -0.185306 -0.982625
vn -0.154291 -0.136441 -0.978559
vn -0.124004 0.165940 -0.978308
vn 0.094335 0.135769 -0.986239
vn -0.638128 0.130706 -0.758755
vn -0.638128 0.130706 -0.758755
vn -0.638128 0.130706 -0.758755
vn -0.638128 0.130706 -0.758755
vn -0.973180 0.205779 0.102836
vn -0.973180 0.205779 0.102836
vn -0.973180 0.205779 0.102836
vn -0.973180 0.205779 0.102836
vn 0.566402 0.622758 0.539779
vn 0.566402 0.622758 0.539779
vn -0.706316 0.658232 0.260478
vn -0.599530 0.635026 0.487140
vn -0.599530 0.635026 0.487140
vn -0.742339 0.654461 0.143576
vn 0.770941 0.636907 0.000000
vn 0.770941 0.636907 0.000000
vn -0.770940 0.636908 0.000000
vn -0.770940 0.636908 0.000000
vn 0.534938 0.614256 -0.580113
vn 0.534938 0.614256 -0.580113
vn -0.572442 0.629121 -0.525850
vn -0.572442 0.629120 -0.525850
vn -0.572442 0.629121 -0.525850
vn -0.572442 0.629120 -0.525850
vn 0.147589 0.490180 0.859035
vn 0.776951 -0.617929 0.120464
vn 0.646742 -0.761503 0.042877
vn 0.636464 0.768630 0.064202
vn 0.717675 0.665639 0.204618
vn 0.641718 -0.765687 -0.043833
vn 0.632241 0.772032 -0.065093
vn 0.773930 -0.619834 -0.129758
vn 0.710878 0.667869 -0.220463
vn 0.146373 0.495659 -0.856094
s 1
g mT_Kit_02_Group_01 mT_Kit_01_Group_01 rock_Face_Mesh_03 rock_Face_Mesh_08 rock_Face_Mesh_012
usemtl lambert2SG
f 260/296/597 261/297/598 265/301/599 264/300/600
f 261/297/598 262/298/601 266/302/602 265/301/599
f 262/298/601 263/299/603 267/303/604 266/302/602
f 264/300/600 265/301/599 269/305/605 268/304/606
f 265/301/599 266/302/602 270/306/607 269/305/605
f 266/302/602 267/303/604 271/307/608 270/306/607
f 336/382/609 337/383/610 338/384/611 339/385/612
s 3
f 323/371/613 326/373/614 327/374/615 324/309/616
s 4
f 311/361/617 313/362/618 314/363/619 312/310/620
s 1
f 339/385/612 338/384/611 340/386/621 341/387/622
s 3
f 324/309/616 327/374/615 330/375/623 328/313/624
s 4
f 312/310/620 314/363/619 317/365/625 316/314/626
s 1
f 341/390/622 340/386/621 342/388/627 343/389/628
s 3
f 328/313/624 330/375/623 333/379/629 331/376/630
s 4
f 316/314/626 317/365/625 321/369/631 320/368/632
s 1
f 276/316/633 277/317/634 281/321/635 280/320/636
f 277/317/634 278/318/637 282/322/638 281/321/635
f 278/318/637 279/319/639 283/323/640 282/322/638
f 280/320/636 281/321/635 285/325/641 284/324/642
f 281/321/635 282/322/638 286/326/643 285/325/641
f 282/322/638 283/323/640 287/327/644 286/326/643
s 6
f 289/329/645 287/328/646 283/331/647 292/332/648
f 291/330/649 289/329/645 292/332/648 293/333/650
f 263/299/651 291/330/649 293/333/650 267/303/652
f 292/332/648 283/331/647 279/334/653 275/335/654
f 293/333/650 292/332/648 275/335/654 273/336/655
f 267/303/652 293/333/650 273/336/655 271/307/656
s 7
f 284/337/657 288/338/658 294/341/659 280/340/660
f 288/338/658 290/339/661 295/342/662 294/341/659
f 290/339/661 260/296/663 264/300/664 295/342/662
f 280/340/660 294/341/659 274/344/665 276/343/666
f 294/341/659 295/342/662 272/345/667 274/344/665
f 295/342/662 264/300/664 268/304/668 272/345/667
s 1
f 268/304/606 269/305/605 297/347/669 296/346/670
s 7
f 272/308/667 268/304/668 296/346/671 298/348/672
s 1
f 269/305/605 270/306/607 299/349/673 297/347/669
f 270/306/607 271/307/608 300/350/674 299/349/673
s 6
f 271/307/656 273/311/655 301/351/675 300/350/676
s 7
f 274/312/665 272/308/667 298/348/672 302/352/677
s 6
f 273/311/655 275/315/654 303/353/678 301/351/675
s 1
f 277/317/634 276/316/633 305/355/679 304/354/680
s 7
f 276/316/666 274/312/665 302/352/677 305/355/681
s 1
f 278/318/637 277/317/634 304/354/680 306/356/682
s 6
f 275/315/654 279/319/653 307/357/683 303/353/678
s 1
f 279/319/639 278/318/637 306/356/682 307/357/684
f 296/346/670 297/347/669 309/359/685 308/358/686
s 7
f 298/348/672 296/346/671 308/358/687 310/360/688
s 1
f 297/347/669 299/349/673 311/361/689 309/359/685
f 299/349/673 300/350/674 313/362/690 311/361/689
s 6
f 300/350/676 301/351/675 314/363/691 313/362/692
s 7
f 335/380/693 334/381/694 325/372/695 329/378/696
s 6
f 301/351/675 303/353/678 317/365/697 314/363/691
s 1
f 304/354/680 305/355/679 319/367/698 318/366/699
s 7
f 305/355/681 302/352/677 315/364/700 319/367/701
s 1
f 306/356/682 304/354/680 318/366/699 320/368/702
s 6
f 303/353/678 307/357/683 321/369/703 317/365/697
s 1
f 307/357/684 306/356/682 320/368/702 321/369/704
f 308/358/686 309/359/685 323/371/705 322/370/706
s 7
f 310/360/688 308/358/687 322/370/707 325/372/708
s 1
f 344/391/709 345/392/710 346/393/711 347/394/712
s 8
f 345/392/713 348/395/714 349/396/715 346/393/716
f 348/395/714 350/397/717 351/398/718 349/396/715
s 1
f 318/366/699 319/367/698 332/377/719 331/376/720
s 7
f 319/367/701 315/364/700 329/378/721 332/377/722
s 8
f 350/397/717 352/399/723 353/400/724 351/398/718
s 1
f 352/399/725 354/401/726 355/402/727 353/400/728
s 7
f 302/352/677 298/348/672 334/381/694 335/380/693
s off
f 298/348/729 310/360/730 325/372/731 334/381/732
f 315/364/733 302/352/734 335/380/735 329/378/736
s 1
f 322/370/706 323/371/705 337/383/610 336/382/609
s 3
f 323/371/613 324/309/616 338/384/737 337/383/738
s 9
f 325/372/739 322/370/740 336/382/741 339/385/742
s 3
f 324/309/616 328/313/624 340/386/743 338/384/744
s 9
f 329/364/745 325/372/739 339/385/742 341/387/746
s 3
f 328/313/624 331/376/630 342/388/747 340/386/748
s 1
f 331/376/720 332/377/719 343/389/628 342/388/627
s off
f 332/377/749 329/378/750 341/390/751 343/389/752
s 1
f 309/359/685 311/361/689 345/392/710 344/391/709
f 326/373/753 323/371/705 347/394/712 346/393/711
f 323/371/705 309/359/685 344/391/709 347/394/712
s 8
f 311/361/754 312/310/755 348/395/714 345/392/713
f 327/374/756 326/373/757 346/393/716 349/396/715
f 312/310/755 316/314/758 350/397/717 348/395/714
f 330/375/759 327/374/756 349/396/715 351/398/718
f 316/314/758 320/368/760 352/399/723 350/397/717
f 333/379/761 330/375/759 351/398/718 353/400/724
s 1
f 320/368/702 318/366/699 354/401/726 352/399/725
f 318/366/699 331/376/720 355/402/727 354/401/726
f 331/376/720 333/379/762 353/400/728 355/402/727
