newmtl initialShadingGroup
illum 4
Kd 0.50 0.50 0.50
Ka 0.00 0.00 0.00
Tf 1.00 1.00 1.00
Ni 1.00
newmtl lambert2SG
illum 4
Kd 0.49 0.27 0.15
Ka 0.00 0.00 0.00
Tf 1.00 1.00 1.00
Ni 1.00
newmtl lambert3SG
illum 4
Kd 0.33 0.76 0.44
Ka 0.00 0.00 0.00
Tf 1.00 1.00 1.00
Ni 1.00
newmtl lambert4SG
illum 4
Kd 0.02 0.47 0.05
Ka 0.00 0.00 0.00
Tf 1.00 1.00 1.00
Ni 1.00
newmtl lambert5SG
illum 4
Kd 0.18 0.52 0.28
Ka 0.00 0.00 0.00
Tf 1.00 1.00 1.00
Ni 1.00
